<?xml version="1.0" encoding="UTF-8" standalone="no"?>
<!-- Generator: Adobe Illustrator 19.0.0, SVG Export Plug-In . SVG Version: 6.00 Build 0)  -->

<svg
   xmlns:dc="http://purl.org/dc/elements/1.1/"
   xmlns:cc="http://creativecommons.org/ns#"
   xmlns:rdf="http://www.w3.org/1999/02/22-rdf-syntax-ns#"
   xmlns:svg="http://www.w3.org/2000/svg"
   xmlns="http://www.w3.org/2000/svg"
   xmlns:sodipodi="http://sodipodi.sourceforge.net/DTD/sodipodi-0.dtd"
   xmlns:inkscape="http://www.inkscape.org/namespaces/inkscape"
   version="1.1"
   id="Capa_1"
   x="0px"
   y="0px"
   viewBox="0 0 469.333 469.333"
   style="enable-background:new 0 0 469.333 469.333;"
   xml:space="preserve"
   sodipodi:docname="three_darkmode.svg"
   inkscape:version="0.92.4 5da689c313, 2019-01-14"><metadata
   id="metadata530"><rdf:RDF><cc:Work
       rdf:about=""><dc:format>image/svg+xml</dc:format><dc:type
         rdf:resource="http://purl.org/dc/dcmitype/StillImage" /><dc:title></dc:title></cc:Work></rdf:RDF></metadata><defs
   id="defs528" /><sodipodi:namedview
   pagecolor="#ffffff"
   bordercolor="#666666"
   borderopacity="1"
   objecttolerance="10"
   gridtolerance="10"
   guidetolerance="10"
   inkscape:pageopacity="0"
   inkscape:pageshadow="2"
   inkscape:window-width="1874"
   inkscape:window-height="1034"
   id="namedview526"
   showgrid="false"
   inkscape:zoom="0.50284126"
   inkscape:cx="-20.881341"
   inkscape:cy="234.6665"
   inkscape:window-x="44"
   inkscape:window-y="24"
   inkscape:window-maximized="0"
   inkscape:current-layer="Capa_1" />
<g
   id="g493">
	<g
   id="g491">
		<g
   id="g489">
			<path
   d="M341.333,256v-32c0-17.707-14.293-32-32-32c17.707,0,32-14.293,32-32v-32c0-23.573-19.093-42.667-42.667-42.667h-85.333     V128h85.333v42.667H256v42.667h42.667V256h-85.333v42.667h85.333C322.24,298.667,341.333,279.573,341.333,256z"
   id="path483" />
			<path
   d="M42.667,85.333H0v341.333c0,23.573,19.093,42.667,42.667,42.667H384v-42.667H42.667V85.333z"
   id="path485" />
			<path
   d="M426.667,0H128c-23.573,0-42.667,19.093-42.667,42.667v298.667C85.333,364.907,104.427,384,128,384h298.667     c23.573,0,42.667-19.093,42.667-42.667V42.667C469.333,19.093,450.24,0,426.667,0z M426.667,341.333H128V42.667h298.667V341.333z     "
   id="path487" />
		</g>
	</g>
</g>
<g
   id="g495">
</g>
<g
   id="g497">
</g>
<g
   id="g499">
</g>
<g
   id="g501">
</g>
<g
   id="g503">
</g>
<g
   id="g505">
</g>
<g
   id="g507">
</g>
<g
   id="g509">
</g>
<g
   id="g511">
</g>
<g
   id="g513">
</g>
<g
   id="g515">
</g>
<g
   id="g517">
</g>
<g
   id="g519">
</g>
<g
   id="g521">
</g>
<g
   id="g523">
</g>
<path
   style="fill:#ffffff;fill-opacity:1;stroke-width:1.9886992"
   d="M 28.512499,465.62446 C 18.70931,462.12972 9.8497767,453.80306 5.1623916,443.67879 1.6671033,436.12933 1.4772155,426.83204 1.4357652,261.21564 L 1.3920894,86.707284 H 21.279081 41.166073 V 256.74106 426.77485 H 212.1942 383.22233 v 20.88134 20.88134 l -173.514,-0.0873 C 67.573487,468.37863 34.805103,467.86769 28.512499,465.62444 Z"
   id="path532"
   inkscape:connector-curvature="0" /><path
   style="fill:#ffffff;fill-opacity:1;stroke-width:1.9886992"
   d="M 111.65391,379.27252 C 101.81725,374.80457 89.350288,360.71644 87.849086,352.3722 87.241569,348.99537 87.004608,274.56245 87.322507,186.96569 L 87.900504,27.698845 93.594261,19.483624 C 97.151514,14.351054 103.08133,9.3781167 109.39715,6.2308121 l 10.10913,-5.0375926 158.20829,0.043676 c 149.60027,0.041299 158.64877,0.2437332 166.30377,3.7205605 9.70915,4.409796 19.33489,15.520726 22.4481,25.911698 3.36058,11.216655 3.19703,311.799226 -0.1758,323.087446 -3.14107,10.51256 -16.63957,24.12835 -26.6861,26.91797 -5.14288,1.42805 -58.9457,2.116 -163.77194,2.09412 -147.37112,-0.0308 -156.56454,-0.23772 -164.17867,-3.69617 z M 426.97372,192.10834 V 40.967203 H 276.82693 126.68014 V 190.78254 c 0,82.39844 0.59661,150.41196 1.3258,151.14113 0.72919,0.7292 68.29524,1.32581 150.14679,1.32581 h 148.82099 z"
   id="path534"
   inkscape:connector-curvature="0" /><path
   style="fill:#ffffff;fill-opacity:1;stroke-width:1.9886992"
   d="m 214.1829,277.72122 v -19.98581 h 42.75703 42.75704 v -22.87004 -22.87004 h -21.87569 -21.87569 v -19.88699 -19.88699 h 21.87569 21.87569 V 149.35131 126.48127 H 256.93993 214.1829 V 106.59428 86.707284 h 47.41599 c 45.79862,0 47.71496,0.157838 56.18075,4.627252 4.82062,2.544989 11.44951,8.435146 14.73086,13.089244 5.8633,8.31618 5.97592,8.94748 6.53593,36.63825 0.51081,25.25823 0.16022,28.83444 -3.38529,34.53149 -4.68756,7.53217 -11.77499,12.51949 -20.60157,14.49705 l -6.41346,1.43691 5.9661,1.5459 c 8.24018,2.13514 18.28481,9.98925 22.02486,17.22171 2.50875,4.85139 3.00048,11.49204 2.48378,33.54246 -0.62988,26.88036 -0.7773,27.68168 -6.61035,35.93099 -11.08909,15.68263 -15.04844,16.66213 -70.10164,17.3425 l -48.22596,0.59598 z"
   id="path536"
   inkscape:connector-curvature="0" /></svg>