<?xml version="1.0" encoding="UTF-8" standalone="no"?>
<svg
   xmlns:dc="http://purl.org/dc/elements/1.1/"
   xmlns:cc="http://creativecommons.org/ns#"
   xmlns:rdf="http://www.w3.org/1999/02/22-rdf-syntax-ns#"
   xmlns:svg="http://www.w3.org/2000/svg"
   xmlns="http://www.w3.org/2000/svg"
   xmlns:sodipodi="http://sodipodi.sourceforge.net/DTD/sodipodi-0.dtd"
   xmlns:inkscape="http://www.inkscape.org/namespaces/inkscape"
   version="1.1"
   id="Capa_1"
   x="0px"
   y="0px"
   width="500"
   height="500"
   viewBox="0 0 500 500"
   xml:space="preserve"
   sodipodi:docname="ws1.svg"
   inkscape:version="1.0.1 (3bc2e813f5, 2020-09-07, custom)"><sodipodi:namedview
   pagecolor="#ffffff"
   bordercolor="#666666"
   borderopacity="1"
   objecttolerance="10"
   gridtolerance="10"
   guidetolerance="10"
   inkscape:pageopacity="0"
   inkscape:pageshadow="2"
   inkscape:window-width="1628"
   inkscape:window-height="1392"
   id="namedview42077"
   showgrid="false"
   inkscape:zoom="1.678"
   inkscape:cx="248.21216"
   inkscape:cy="250"
   inkscape:window-x="80"
   inkscape:window-y="20"
   inkscape:window-maximized="0"
   inkscape:current-layer="Capa_1" /><metadata
   id="metadata37375"><rdf:RDF><cc:Work
       rdf:about=""><dc:format>image/svg+xml</dc:format><dc:type
         rdf:resource="http://purl.org/dc/dcmitype/StillImage" /><dc:title /></cc:Work></rdf:RDF></metadata><defs
   id="defs37373">
	
</defs>

<g
   id="g37340">
</g>
<g
   id="g37342">
</g>
<g
   id="g37344">
</g>
<g
   id="g37346">
</g>
<g
   id="g37348">
</g>
<g
   id="g37350">
</g>
<g
   id="g37352">
</g>
<g
   id="g37354">
</g>
<g
   id="g37356">
</g>
<g
   id="g37358">
</g>
<g
   id="g37360">
</g>
<g
   id="g37362">
</g>
<g
   id="g37364">
</g>
<g
   id="g37366">
</g>
<g
   id="g37368">
</g>
<ellipse
   style="fill:none;stroke:#000000;stroke-width:47.0645;stroke-miterlimit:4;stroke-dasharray:none"
   id="path37381"
   cx="250.00003"
   cy="250"
   rx="226.46777"
   ry="226.46776" /><g
   id="g37741"
   transform="matrix(0.55225024,0,0,0.55225024,99.999999,99.99942)"><g
     id="g37682">
	<g
   id="g37680">
		<path
   d="m 85.972,416.447 c 5.838,9.139 15.716,14.133 25.814,14.133 5.637,0 11.347,-1.555 16.444,-4.816 14.241,-9.102 18.409,-28.023 9.309,-42.26 L 66.915,272.953 137.546,162.413 c 9.1,-14.241 4.933,-33.158 -9.309,-42.258 -14.248,-9.095 -33.158,-4.933 -42.259,9.309 L 4.815,256.478 c -6.42,10.043 -6.42,22.907 0,32.95 z"
   id="path37674" />
		<path
   d="m 415.002,425.756 c 5.104,3.264 10.808,4.816 16.444,4.816 10.092,0 19.976,-4.986 25.813,-14.131 l 81.158,-127.014 c 6.42,-10.043 6.42,-22.907 0,-32.95 L 457.266,129.463 c -9.095,-14.248 -28.03,-18.416 -42.259,-9.309 -14.241,9.1 -18.409,28.023 -9.309,42.258 l 70.631,110.54 -70.637,110.545 c -9.099,14.235 -4.931,33.159 9.31,42.259 z"
   id="path37676" />
		<path
   d="m 165.667,492.6 c 4.272,2.043 8.776,3.018 13.213,3.018 11.401,0 22.35,-6.402 27.613,-17.375 L 391.979,91.452 c 7.307,-15.239 0.881,-33.519 -14.357,-40.82 -15.245,-7.307 -33.52,-0.881 -40.821,14.357 l -185.492,386.79 c -7.307,15.239 -0.881,33.52 14.358,40.821 z"
   id="path37678" />
	</g>
</g><g
     id="g37684">
</g><g
     id="g37686">
</g><g
     id="g37688">
</g><g
     id="g37690">
</g><g
     id="g37692">
</g><g
     id="g37694">
</g><g
     id="g37696">
</g><g
     id="g37698">
</g><g
     id="g37700">
</g><g
     id="g37702">
</g><g
     id="g37704">
</g><g
     id="g37706">
</g><g
     id="g37708">
</g><g
     id="g37710">
</g><g
     id="g37712">
</g></g></svg>
