<?xml version="1.0" encoding="UTF-8" standalone="no"?>
<svg
   xmlns:dc="http://purl.org/dc/elements/1.1/"
   xmlns:cc="http://creativecommons.org/ns#"
   xmlns:rdf="http://www.w3.org/1999/02/22-rdf-syntax-ns#"
   xmlns:svg="http://www.w3.org/2000/svg"
   xmlns="http://www.w3.org/2000/svg"
   xmlns:sodipodi="http://sodipodi.sourceforge.net/DTD/sodipodi-0.dtd"
   xmlns:inkscape="http://www.inkscape.org/namespaces/inkscape"
   version="1.1"
   id="Capa_1"
   x="0px"
   y="0px"
   width="550"
   height="550"
   viewBox="0 0 550 550"
   xml:space="preserve"
   sodipodi:docname="ws7_w.svg"
   inkscape:version="1.0.1 (3bc2e813f5, 2020-09-07, custom)"><metadata
   id="metadata37375"><rdf:RDF><cc:Work
       rdf:about=""><dc:format>image/svg+xml</dc:format><dc:type
         rdf:resource="http://purl.org/dc/dcmitype/StillImage" /><dc:title></dc:title></cc:Work></rdf:RDF></metadata><defs
   id="defs37373">
	

		
		
		
		
	<filter
   style="color-interpolation-filters:sRGB"
   inkscape:label="Drop Shadow"
   id="filter45716"><feFlood
     flood-opacity="0.498039"
     flood-color="rgb(0,0,0)"
     result="flood"
     id="feFlood45706" /><feComposite
     in="flood"
     in2="SourceGraphic"
     operator="in"
     result="composite1"
     id="feComposite45708" /><feGaussianBlur
     in="composite1"
     stdDeviation="3"
     result="blur"
     id="feGaussianBlur45710" /><feOffset
     dx="6"
     dy="6"
     result="offset"
     id="feOffset45712" /><feComposite
     in="SourceGraphic"
     in2="offset"
     operator="over"
     result="composite2"
     id="feComposite45714" /></filter><filter
   style="color-interpolation-filters:sRGB"
   inkscape:label="Drop Shadow"
   id="filter45728"><feFlood
     flood-opacity="0.498039"
     flood-color="rgb(0,0,0)"
     result="flood"
     id="feFlood45718" /><feComposite
     in="flood"
     in2="SourceGraphic"
     operator="in"
     result="composite1"
     id="feComposite45720" /><feGaussianBlur
     in="composite1"
     stdDeviation="3"
     result="blur"
     id="feGaussianBlur45722" /><feOffset
     dx="6"
     dy="6"
     result="offset"
     id="feOffset45724" /><feComposite
     in="SourceGraphic"
     in2="offset"
     operator="over"
     result="composite2"
     id="feComposite45726" /></filter><filter
   style="color-interpolation-filters:sRGB"
   inkscape:label="Drop Shadow"
   id="filter45740"><feFlood
     flood-opacity="0.498039"
     flood-color="rgb(0,0,0)"
     result="flood"
     id="feFlood45730" /><feComposite
     in="flood"
     in2="SourceGraphic"
     operator="in"
     result="composite1"
     id="feComposite45732" /><feGaussianBlur
     in="composite1"
     stdDeviation="3"
     result="blur"
     id="feGaussianBlur45734" /><feOffset
     dx="6"
     dy="6"
     result="offset"
     id="feOffset45736" /><feComposite
     in="SourceGraphic"
     in2="offset"
     operator="over"
     result="composite2"
     id="feComposite45738" /></filter><filter
   style="color-interpolation-filters:sRGB"
   inkscape:label="Drop Shadow"
   id="filter1538"><feFlood
     flood-opacity="0.498039"
     flood-color="rgb(0,0,0)"
     result="flood"
     id="feFlood1528" /><feComposite
     in="flood"
     in2="SourceGraphic"
     operator="in"
     result="composite1"
     id="feComposite1530" /><feGaussianBlur
     in="composite1"
     stdDeviation="1"
     result="blur"
     id="feGaussianBlur1532" /><feOffset
     dx="8"
     dy="8"
     result="offset"
     id="feOffset1534" /><feComposite
     in="SourceGraphic"
     in2="offset"
     operator="over"
     result="composite2"
     id="feComposite1536" /></filter><filter
   style="color-interpolation-filters:sRGB"
   inkscape:label="Drop Shadow"
   id="filter1369"><feFlood
     flood-opacity="1"
     flood-color="rgb(0,0,0)"
     result="flood"
     id="feFlood1359" /><feComposite
     in="flood"
     in2="SourceGraphic"
     operator="in"
     result="composite1"
     id="feComposite1361" /><feGaussianBlur
     in="composite1"
     stdDeviation="2"
     result="blur"
     id="feGaussianBlur1363" /><feOffset
     dx="10"
     dy="10"
     result="offset"
     id="feOffset1365" /><feComposite
     in="SourceGraphic"
     in2="offset"
     operator="over"
     result="composite2"
     id="feComposite1367" /></filter><filter
   style="color-interpolation-filters:sRGB;"
   inkscape:label="Diffuse Light"
   id="filter1496"><feGaussianBlur
     in="SourceGraphic"
     stdDeviation="9.42451"
     result="blur"
     id="feGaussianBlur1486" /><feDiffuseLighting
     diffuseConstant="1"
     surfaceScale="10"
     lighting-color="rgb(255,255,255)"
     result="diffuse"
     id="feDiffuseLighting1490"><feDistantLight
       elevation="47"
       azimuth="235"
       id="feDistantLight1488" /></feDiffuseLighting><feComposite
     in="diffuse"
     in2="diffuse"
     operator="arithmetic"
     k1="1"
     result="composite1"
     id="feComposite1492" /><feComposite
     in="composite1"
     in2="SourceGraphic"
     k1="1"
     operator="arithmetic"
     k3="1"
     result="composite2"
     id="feComposite1494" /></filter><filter
   style="color-interpolation-filters:sRGB;"
   inkscape:label="Drop Shadow"
   id="filter1923"><feFlood
     flood-opacity="0.933333"
     flood-color="rgb(0,0,0)"
     result="flood"
     id="feFlood1913" /><feComposite
     in="flood"
     in2="SourceGraphic"
     operator="in"
     result="composite1"
     id="feComposite1915" /><feGaussianBlur
     in="composite1"
     stdDeviation="3"
     result="blur"
     id="feGaussianBlur1917" /><feOffset
     dx="8"
     dy="8"
     result="offset"
     id="feOffset1919" /><feComposite
     in="SourceGraphic"
     in2="offset"
     operator="over"
     result="composite2"
     id="feComposite1921" /></filter><filter
   style="color-interpolation-filters:sRGB;"
   inkscape:label="Drop Shadow"
   id="filter2096"><feFlood
     flood-opacity="0.933333"
     flood-color="rgb(0,0,0)"
     result="flood"
     id="feFlood2086" /><feComposite
     in="flood"
     in2="SourceGraphic"
     operator="in"
     result="composite1"
     id="feComposite2088" /><feGaussianBlur
     in="composite1"
     stdDeviation="3"
     result="blur"
     id="feGaussianBlur2090" /><feOffset
     dx="8"
     dy="8"
     result="offset"
     id="feOffset2092" /><feComposite
     in="SourceGraphic"
     in2="offset"
     operator="over"
     result="composite2"
     id="feComposite2094" /></filter><filter
   style="color-interpolation-filters:sRGB;"
   inkscape:label="Drop Shadow"
   id="filter2108"><feFlood
     flood-opacity="0.933333"
     flood-color="rgb(0,0,0)"
     result="flood"
     id="feFlood2098" /><feComposite
     in="flood"
     in2="SourceGraphic"
     operator="in"
     result="composite1"
     id="feComposite2100" /><feGaussianBlur
     in="composite1"
     stdDeviation="3"
     result="blur"
     id="feGaussianBlur2102" /><feOffset
     dx="8"
     dy="8"
     result="offset"
     id="feOffset2104" /><feComposite
     in="SourceGraphic"
     in2="offset"
     operator="over"
     result="composite2"
     id="feComposite2106" /></filter><filter
   style="color-interpolation-filters:sRGB;"
   inkscape:label="Drop Shadow"
   id="filter2341"><feFlood
     flood-opacity="0.933333"
     flood-color="rgb(0,0,0)"
     result="flood"
     id="feFlood2331" /><feComposite
     in="flood"
     in2="SourceGraphic"
     operator="in"
     result="composite1"
     id="feComposite2333" /><feGaussianBlur
     in="composite1"
     stdDeviation="3"
     result="blur"
     id="feGaussianBlur2335" /><feOffset
     dx="8"
     dy="8"
     result="offset"
     id="feOffset2337" /><feComposite
     in="SourceGraphic"
     in2="offset"
     operator="over"
     result="composite2"
     id="feComposite2339" /></filter><filter
   style="color-interpolation-filters:sRGB;"
   inkscape:label="Drop Shadow"
   id="filter2769"><feFlood
     flood-opacity="0.933333"
     flood-color="rgb(0,0,0)"
     result="flood"
     id="feFlood2759" /><feComposite
     in="flood"
     in2="SourceGraphic"
     operator="in"
     result="composite1"
     id="feComposite2761" /><feGaussianBlur
     in="composite1"
     stdDeviation="3"
     result="blur"
     id="feGaussianBlur2763" /><feOffset
     dx="8"
     dy="8"
     result="offset"
     id="feOffset2765" /><feComposite
     in="SourceGraphic"
     in2="offset"
     operator="over"
     result="composite2"
     id="feComposite2767" /></filter><filter
   style="color-interpolation-filters:sRGB;"
   inkscape:label="Drop Shadow"
   id="filter3062"><feFlood
     flood-opacity="0.933333"
     flood-color="rgb(0,0,0)"
     result="flood"
     id="feFlood3052" /><feComposite
     in="flood"
     in2="SourceGraphic"
     operator="in"
     result="composite1"
     id="feComposite3054" /><feGaussianBlur
     in="composite1"
     stdDeviation="3"
     result="blur"
     id="feGaussianBlur3056" /><feOffset
     dx="8"
     dy="8"
     result="offset"
     id="feOffset3058" /><feComposite
     in="SourceGraphic"
     in2="offset"
     operator="over"
     result="composite2"
     id="feComposite3060" /></filter><filter
   style="color-interpolation-filters:sRGB;"
   inkscape:label="Drop Shadow"
   id="filter3278"><feFlood
     flood-opacity="0.933333"
     flood-color="rgb(0,0,0)"
     result="flood"
     id="feFlood3268" /><feComposite
     in="flood"
     in2="SourceGraphic"
     operator="in"
     result="composite1"
     id="feComposite3270" /><feGaussianBlur
     in="composite1"
     stdDeviation="3"
     result="blur"
     id="feGaussianBlur3272" /><feOffset
     dx="8"
     dy="8"
     result="offset"
     id="feOffset3274" /><feComposite
     in="SourceGraphic"
     in2="offset"
     operator="over"
     result="composite2"
     id="feComposite3276" /></filter><filter
   style="color-interpolation-filters:sRGB;"
   inkscape:label="Drop Shadow"
   id="filter3517"><feFlood
     flood-opacity="0.933333"
     flood-color="rgb(0,0,0)"
     result="flood"
     id="feFlood3507" /><feComposite
     in="flood"
     in2="SourceGraphic"
     operator="in"
     result="composite1"
     id="feComposite3509" /><feGaussianBlur
     in="composite1"
     stdDeviation="3"
     result="blur"
     id="feGaussianBlur3511" /><feOffset
     dx="8"
     dy="8"
     result="offset"
     id="feOffset3513" /><feComposite
     in="SourceGraphic"
     in2="offset"
     operator="over"
     result="composite2"
     id="feComposite3515" /></filter><filter
   style="color-interpolation-filters:sRGB;"
   inkscape:label="Drop Shadow"
   id="filter4167"><feFlood
     flood-opacity="0.933333"
     flood-color="rgb(0,0,0)"
     result="flood"
     id="feFlood4157" /><feComposite
     in="flood"
     in2="SourceGraphic"
     operator="in"
     result="composite1"
     id="feComposite4159" /><feGaussianBlur
     in="composite1"
     stdDeviation="3"
     result="blur"
     id="feGaussianBlur4161" /><feOffset
     dx="8"
     dy="8"
     result="offset"
     id="feOffset4163" /><feComposite
     in="SourceGraphic"
     in2="offset"
     operator="over"
     result="composite2"
     id="feComposite4165" /></filter><filter
   style="color-interpolation-filters:sRGB;"
   inkscape:label="Drop Shadow"
   id="filter4643"><feFlood
     flood-opacity="0.933333"
     flood-color="rgb(0,0,0)"
     result="flood"
     id="feFlood4633" /><feComposite
     in="flood"
     in2="SourceGraphic"
     operator="in"
     result="composite1"
     id="feComposite4635" /><feGaussianBlur
     in="composite1"
     stdDeviation="3"
     result="blur"
     id="feGaussianBlur4637" /><feOffset
     dx="8"
     dy="8"
     result="offset"
     id="feOffset4639" /><feComposite
     in="SourceGraphic"
     in2="offset"
     operator="over"
     result="composite2"
     id="feComposite4641" /></filter><filter
   style="color-interpolation-filters:sRGB;"
   inkscape:label="Drop Shadow"
   id="filter4892"><feFlood
     flood-opacity="0.933333"
     flood-color="rgb(0,0,0)"
     result="flood"
     id="feFlood4882" /><feComposite
     in="flood"
     in2="SourceGraphic"
     operator="in"
     result="composite1"
     id="feComposite4884" /><feGaussianBlur
     in="composite1"
     stdDeviation="3"
     result="blur"
     id="feGaussianBlur4886" /><feOffset
     dx="8"
     dy="8"
     result="offset"
     id="feOffset4888" /><feComposite
     in="SourceGraphic"
     in2="offset"
     operator="over"
     result="composite2"
     id="feComposite4890" /></filter><filter
   style="color-interpolation-filters:sRGB;"
   inkscape:label="Drop Shadow"
   id="filter5805"><feFlood
     flood-opacity="0.933333"
     flood-color="rgb(0,0,0)"
     result="flood"
     id="feFlood5795" /><feComposite
     in="flood"
     in2="SourceGraphic"
     operator="in"
     result="composite1"
     id="feComposite5797" /><feGaussianBlur
     in="composite1"
     stdDeviation="3"
     result="blur"
     id="feGaussianBlur5799" /><feOffset
     dx="8"
     dy="8"
     result="offset"
     id="feOffset5801" /><feComposite
     in="SourceGraphic"
     in2="offset"
     operator="over"
     result="composite2"
     id="feComposite5803" /></filter><filter
   style="color-interpolation-filters:sRGB;"
   inkscape:label="Drop Shadow"
   id="filter5829"><feFlood
     flood-opacity="0.933333"
     flood-color="rgb(0,0,0)"
     result="flood"
     id="feFlood5819" /><feComposite
     in="flood"
     in2="SourceGraphic"
     operator="in"
     result="composite1"
     id="feComposite5821" /><feGaussianBlur
     in="composite1"
     stdDeviation="3"
     result="blur"
     id="feGaussianBlur5823" /><feOffset
     dx="8"
     dy="8"
     result="offset"
     id="feOffset5825" /><feComposite
     in="SourceGraphic"
     in2="offset"
     operator="over"
     result="composite2"
     id="feComposite5827" /></filter></defs><sodipodi:namedview
   pagecolor="#ffffff"
   bordercolor="#666666"
   borderopacity="1"
   objecttolerance="10"
   gridtolerance="10"
   guidetolerance="10"
   inkscape:pageopacity="0"
   inkscape:pageshadow="2"
   inkscape:window-width="3268"
   inkscape:window-height="1392"
   id="namedview37371"
   showgrid="true"
   inkscape:showpageshadow="false"
   inkscape:snap-page="true"
   inkscape:zoom="1.3892513"
   inkscape:cx="250.37991"
   inkscape:cy="279.20999"
   inkscape:window-x="120"
   inkscape:window-y="20"
   inkscape:window-maximized="0"
   inkscape:current-layer="Capa_1"
   inkscape:snap-grids="false"
   inkscape:snap-object-midpoints="true"
   inkscape:document-rotation="0"
   inkscape:pagecheckerboard="true"><inkscape:grid
     type="xygrid"
     id="grid37377" /></sodipodi:namedview>

<g
   id="g37340">
</g>
<g
   id="g37342">
</g>
<g
   id="g37344">
</g>
<g
   id="g37346">
</g>
<g
   id="g37348">
</g>
<g
   id="g37350">
</g>
<g
   id="g37352">
</g>
<g
   id="g37354">
</g>
<g
   id="g37356">
</g>
<g
   id="g37358">
</g>
<g
   id="g37360">
</g>
<g
   id="g37362">
</g>
<g
   id="g37364">
</g>
<g
   id="g37366">
</g>
<g
   id="g37368">
</g>
<g
   id="g40524"
   transform="translate(643.798,-36.666)">
</g><g
   id="g40526"
   transform="translate(643.798,-36.666)">
</g><g
   id="g40528"
   transform="translate(643.798,-36.666)">
</g><g
   id="g40530"
   transform="translate(643.798,-36.666)">
</g><g
   id="g40532"
   transform="translate(643.798,-36.666)">
</g><g
   id="g40534"
   transform="translate(643.798,-36.666)">
</g><g
   id="g40536"
   transform="translate(643.798,-36.666)">
</g><g
   id="g40538"
   transform="translate(643.798,-36.666)">
</g><g
   id="g40540"
   transform="translate(643.798,-36.666)">
</g><g
   id="g40542"
   transform="translate(643.798,-36.666)">
</g><g
   id="g40544"
   transform="translate(643.798,-36.666)">
</g><g
   id="g40546"
   transform="translate(643.798,-36.666)">
</g><g
   id="g40548"
   transform="translate(643.798,-36.666)">
</g><g
   id="g40550"
   transform="translate(643.798,-36.666)">
</g><g
   id="g40552"
   transform="translate(643.798,-36.666)">
</g><g
   id="g37340-5"
   transform="translate(24.999969,25)">
</g><g
   id="g37342-6"
   transform="translate(24.999969,25)">
</g><g
   id="g37344-2"
   transform="translate(24.999969,25)">
</g><g
   id="g37346-9"
   transform="translate(24.999969,25)">
</g><g
   id="g37348-1"
   transform="translate(24.999969,25)">
</g><g
   id="g37350-2"
   transform="translate(24.999969,25)">
</g><g
   id="g37352-7"
   transform="translate(24.999969,25)">
</g><g
   id="g37354-0"
   transform="translate(24.999969,25)">
</g><g
   id="g37356-9"
   transform="translate(24.999969,25)">
</g><g
   id="g37358-3"
   transform="translate(24.999969,25)">
</g><g
   id="g37360-6"
   transform="translate(24.999969,25)">
</g><g
   id="g37362-0"
   transform="translate(24.999969,25)">
</g><g
   id="g37364-6"
   transform="translate(24.999969,25)">
</g><g
   id="g37366-2"
   transform="translate(24.999969,25)">
</g><g
   id="g37368-6"
   transform="translate(24.999969,25)">
</g><g
   id="g37340-7"
   style="stroke:#cccccc"
   transform="translate(24.999969,25)">
</g><g
   id="g37342-7"
   style="stroke:#cccccc"
   transform="translate(24.999969,25)">
</g><g
   id="g37344-1"
   style="stroke:#cccccc"
   transform="translate(24.999969,25)">
</g><g
   id="g37346-1"
   style="stroke:#cccccc"
   transform="translate(24.999969,25)">
</g><g
   id="g37348-5"
   style="stroke:#cccccc"
   transform="translate(24.999969,25)">
</g><g
   id="g37350-9"
   style="stroke:#cccccc"
   transform="translate(24.999969,25)">
</g><g
   id="g37352-77"
   style="stroke:#cccccc"
   transform="translate(24.999969,25)">
</g><g
   id="g37354-6"
   style="stroke:#cccccc"
   transform="translate(24.999969,25)">
</g><g
   id="g37356-7"
   style="stroke:#cccccc"
   transform="translate(24.999969,25)">
</g><g
   id="g37358-36"
   style="stroke:#cccccc"
   transform="translate(24.999969,25)">
</g><g
   id="g37360-5"
   style="stroke:#cccccc"
   transform="translate(24.999969,25)">
</g><g
   id="g37362-6"
   style="stroke:#cccccc"
   transform="translate(24.999969,25)">
</g><g
   id="g37364-3"
   style="stroke:#cccccc"
   transform="translate(24.999969,25)">
</g><g
   id="g37366-9"
   style="stroke:#cccccc"
   transform="translate(24.999969,25)">
</g><g
   id="g37368-4"
   style="stroke:#cccccc"
   transform="translate(24.999969,25)">
</g><g
   id="g37340-9"
   transform="translate(24.999969,25)">
</g><g
   id="g37342-3"
   transform="translate(24.999969,25)">
</g><g
   id="g37344-9"
   transform="translate(24.999969,25)">
</g><g
   id="g37346-0"
   transform="translate(24.999969,25)">
</g><g
   id="g37348-8"
   transform="translate(24.999969,25)">
</g><g
   id="g37350-8"
   transform="translate(24.999969,25)">
</g><g
   id="g37352-5"
   transform="translate(24.999969,25)">
</g><g
   id="g37354-09"
   transform="translate(24.999969,25)">
</g><g
   id="g37356-6"
   transform="translate(24.999969,25)">
</g><g
   id="g37358-38"
   transform="translate(24.999969,25)">
</g><g
   id="g37360-56"
   transform="translate(24.999969,25)">
</g><g
   id="g37362-1"
   transform="translate(24.999969,25)">
</g><g
   id="g37364-1"
   transform="translate(24.999969,25)">
</g><g
   id="g37366-5"
   transform="translate(24.999969,25)">
</g><g
   id="g37368-9"
   transform="translate(24.999969,25)">
</g><g
   id="g5817"
   transform="matrix(0.99403187,0,0,0.99403187,0.14024525,0.14024525)"
   style="filter:url(#filter5829)"><g
     id="g4873"
     transform="matrix(0.90896702,0,0,0.90896702,28.197739,32.837828)"
     style="stroke-width:0;stroke-miterlimit:4;stroke-dasharray:none"><path
       style="fill:#cccccc;stroke:#cccccc;stroke-width:0;stroke-miterlimit:4;stroke-dasharray:none"
       d="m 152.25591,378.82733 -20.7442,-20.78093 1.51223,-11.4628 1.51222,-11.4628 87.25212,-87.27623 87.25211,-87.27623 30.7751,30.76885 30.77509,30.76885 -87.19678,87.19899 -87.19677,87.199 -9.43903,1.20606 c -5.19146,0.66333 -10.41077,1.36178 -11.59846,1.55212 -2.01649,0.32314 -3.53265,-1.0296 -22.90363,-20.43488 z"
       id="path4860" /><path
       style="fill:#cccccc;stroke:#cccccc;stroke-width:0;stroke-miterlimit:4;stroke-dasharray:none"
       d="m 348.80975,182.33623 -30.76882,-30.77506 21.77498,-21.69484 c 11.97624,-11.93216 22.4825,-22.05283 23.34724,-22.49037 2.20254,-1.11444 7.12937,-0.99075 9.44063,0.237 2.3429,1.24457 50.04317,49.04845 51.17532,51.28649 1.20976,2.39144 0.95308,6.46002 -0.59514,9.43355 -0.76478,1.46885 -10.88886,12.14484 -22.49796,23.72445 l -21.10744,21.05383 z"
       id="path4862" /><path
       style="fill:#cccccc;stroke:#cccccc;stroke-width:0;stroke-miterlimit:4;stroke-dasharray:none"
       d="m 125.53924,403.9178 c 0.17635,-1.01996 1.12899,-8.14406 2.11697,-15.83135 0.98797,-7.68729 1.89211,-14.07267 2.00918,-14.18975 0.11708,-0.11707 6.46172,6.04217 14.09922,13.6872 l 13.88635,13.90006 -12.12026,1.60791 c -6.66615,0.88434 -13.96343,1.84921 -16.21619,2.14415 l -4.09592,0.53625 z"
       id="path4866" /></g><circle
     style="fill:none;stroke:#cccccc;stroke-width:4;stroke-miterlimit:4;stroke-dasharray:none"
     id="path5786"
     cx="275"
     cy="275"
     r="249.50099" /></g></svg>
