<?xml version="1.0" encoding="UTF-8" standalone="no"?>
<!-- Generator: Adobe Illustrator 16.0.0, SVG Export Plug-In . SVG Version: 6.00 Build 0)  -->

<svg
   xmlns:dc="http://purl.org/dc/elements/1.1/"
   xmlns:cc="http://creativecommons.org/ns#"
   xmlns:rdf="http://www.w3.org/1999/02/22-rdf-syntax-ns#"
   xmlns:svg="http://www.w3.org/2000/svg"
   xmlns="http://www.w3.org/2000/svg"
   xmlns:sodipodi="http://sodipodi.sourceforge.net/DTD/sodipodi-0.dtd"
   xmlns:inkscape="http://www.inkscape.org/namespaces/inkscape"
   version="1.1"
   id="Capa_1"
   x="0px"
   y="0px"
   width="550"
   height="550"
   viewBox="0 0 550 550"
   xml:space="preserve"
   sodipodi:docname="ws9_w.svg"
   inkscape:version="1.0.1 (3bc2e813f5, 2020-09-07, custom)"><metadata
   id="metadata37375"><rdf:RDF><cc:Work
       rdf:about=""><dc:format>image/svg+xml</dc:format><dc:type
         rdf:resource="http://purl.org/dc/dcmitype/StillImage" /><dc:title></dc:title></cc:Work></rdf:RDF></metadata><defs
   id="defs37373">
	

		
		
		
		
	<filter
   style="color-interpolation-filters:sRGB"
   inkscape:label="Drop Shadow"
   id="filter45716"><feFlood
     flood-opacity="0.498039"
     flood-color="rgb(0,0,0)"
     result="flood"
     id="feFlood45706" /><feComposite
     in="flood"
     in2="SourceGraphic"
     operator="in"
     result="composite1"
     id="feComposite45708" /><feGaussianBlur
     in="composite1"
     stdDeviation="3"
     result="blur"
     id="feGaussianBlur45710" /><feOffset
     dx="6"
     dy="6"
     result="offset"
     id="feOffset45712" /><feComposite
     in="SourceGraphic"
     in2="offset"
     operator="over"
     result="composite2"
     id="feComposite45714" /></filter><filter
   style="color-interpolation-filters:sRGB"
   inkscape:label="Drop Shadow"
   id="filter45728"><feFlood
     flood-opacity="0.498039"
     flood-color="rgb(0,0,0)"
     result="flood"
     id="feFlood45718" /><feComposite
     in="flood"
     in2="SourceGraphic"
     operator="in"
     result="composite1"
     id="feComposite45720" /><feGaussianBlur
     in="composite1"
     stdDeviation="3"
     result="blur"
     id="feGaussianBlur45722" /><feOffset
     dx="6"
     dy="6"
     result="offset"
     id="feOffset45724" /><feComposite
     in="SourceGraphic"
     in2="offset"
     operator="over"
     result="composite2"
     id="feComposite45726" /></filter><filter
   style="color-interpolation-filters:sRGB"
   inkscape:label="Drop Shadow"
   id="filter45740"><feFlood
     flood-opacity="0.498039"
     flood-color="rgb(0,0,0)"
     result="flood"
     id="feFlood45730" /><feComposite
     in="flood"
     in2="SourceGraphic"
     operator="in"
     result="composite1"
     id="feComposite45732" /><feGaussianBlur
     in="composite1"
     stdDeviation="3"
     result="blur"
     id="feGaussianBlur45734" /><feOffset
     dx="6"
     dy="6"
     result="offset"
     id="feOffset45736" /><feComposite
     in="SourceGraphic"
     in2="offset"
     operator="over"
     result="composite2"
     id="feComposite45738" /></filter><filter
   style="color-interpolation-filters:sRGB"
   inkscape:label="Drop Shadow"
   id="filter1538"><feFlood
     flood-opacity="0.498039"
     flood-color="rgb(0,0,0)"
     result="flood"
     id="feFlood1528" /><feComposite
     in="flood"
     in2="SourceGraphic"
     operator="in"
     result="composite1"
     id="feComposite1530" /><feGaussianBlur
     in="composite1"
     stdDeviation="1"
     result="blur"
     id="feGaussianBlur1532" /><feOffset
     dx="8"
     dy="8"
     result="offset"
     id="feOffset1534" /><feComposite
     in="SourceGraphic"
     in2="offset"
     operator="over"
     result="composite2"
     id="feComposite1536" /></filter><filter
   style="color-interpolation-filters:sRGB"
   inkscape:label="Drop Shadow"
   id="filter1369"><feFlood
     flood-opacity="1"
     flood-color="rgb(0,0,0)"
     result="flood"
     id="feFlood1359" /><feComposite
     in="flood"
     in2="SourceGraphic"
     operator="in"
     result="composite1"
     id="feComposite1361" /><feGaussianBlur
     in="composite1"
     stdDeviation="2"
     result="blur"
     id="feGaussianBlur1363" /><feOffset
     dx="10"
     dy="10"
     result="offset"
     id="feOffset1365" /><feComposite
     in="SourceGraphic"
     in2="offset"
     operator="over"
     result="composite2"
     id="feComposite1367" /></filter><filter
   style="color-interpolation-filters:sRGB;"
   inkscape:label="Diffuse Light"
   id="filter1496"><feGaussianBlur
     in="SourceGraphic"
     stdDeviation="9.42451"
     result="blur"
     id="feGaussianBlur1486" /><feDiffuseLighting
     diffuseConstant="1"
     surfaceScale="10"
     lighting-color="rgb(255,255,255)"
     result="diffuse"
     id="feDiffuseLighting1490"><feDistantLight
       elevation="47"
       azimuth="235"
       id="feDistantLight1488" /></feDiffuseLighting><feComposite
     in="diffuse"
     in2="diffuse"
     operator="arithmetic"
     k1="1"
     result="composite1"
     id="feComposite1492" /><feComposite
     in="composite1"
     in2="SourceGraphic"
     k1="1"
     operator="arithmetic"
     k3="1"
     result="composite2"
     id="feComposite1494" /></filter><filter
   style="color-interpolation-filters:sRGB;"
   inkscape:label="Drop Shadow"
   id="filter1731"><feFlood
     flood-opacity="1"
     flood-color="rgb(0,0,0)"
     result="flood"
     id="feFlood1721" /><feComposite
     in="flood"
     in2="SourceGraphic"
     operator="in"
     result="composite1"
     id="feComposite1723" /><feGaussianBlur
     in="composite1"
     stdDeviation="2"
     result="blur"
     id="feGaussianBlur1725" /><feOffset
     dx="8"
     dy="8"
     result="offset"
     id="feOffset1727" /><feComposite
     in="SourceGraphic"
     in2="offset"
     operator="over"
     result="composite2"
     id="feComposite1729" /></filter></defs><sodipodi:namedview
   pagecolor="#ffffff"
   bordercolor="#666666"
   borderopacity="1"
   objecttolerance="10"
   gridtolerance="10"
   guidetolerance="10"
   inkscape:pageopacity="0"
   inkscape:pageshadow="2"
   inkscape:window-width="3276"
   inkscape:window-height="1400"
   id="namedview37371"
   showgrid="true"
   inkscape:showpageshadow="false"
   inkscape:snap-page="true"
   inkscape:zoom="1.3892513"
   inkscape:cx="242.31972"
   inkscape:cy="308.48775"
   inkscape:window-x="120"
   inkscape:window-y="20"
   inkscape:window-maximized="0"
   inkscape:current-layer="Capa_1"
   inkscape:snap-grids="false"
   inkscape:snap-object-midpoints="true"
   inkscape:document-rotation="0"
   inkscape:pagecheckerboard="true"><inkscape:grid
     type="xygrid"
     id="grid37377" /></sodipodi:namedview>

<g
   id="g37340">
</g>
<g
   id="g37342">
</g>
<g
   id="g37344">
</g>
<g
   id="g37346">
</g>
<g
   id="g37348">
</g>
<g
   id="g37350">
</g>
<g
   id="g37352">
</g>
<g
   id="g37354">
</g>
<g
   id="g37356">
</g>
<g
   id="g37358">
</g>
<g
   id="g37360">
</g>
<g
   id="g37362">
</g>
<g
   id="g37364">
</g>
<g
   id="g37366">
</g>
<g
   id="g37368">
</g>
<g
   id="g40524"
   transform="translate(643.798,-36.666)">
</g><g
   id="g40526"
   transform="translate(643.798,-36.666)">
</g><g
   id="g40528"
   transform="translate(643.798,-36.666)">
</g><g
   id="g40530"
   transform="translate(643.798,-36.666)">
</g><g
   id="g40532"
   transform="translate(643.798,-36.666)">
</g><g
   id="g40534"
   transform="translate(643.798,-36.666)">
</g><g
   id="g40536"
   transform="translate(643.798,-36.666)">
</g><g
   id="g40538"
   transform="translate(643.798,-36.666)">
</g><g
   id="g40540"
   transform="translate(643.798,-36.666)">
</g><g
   id="g40542"
   transform="translate(643.798,-36.666)">
</g><g
   id="g40544"
   transform="translate(643.798,-36.666)">
</g><g
   id="g40546"
   transform="translate(643.798,-36.666)">
</g><g
   id="g40548"
   transform="translate(643.798,-36.666)">
</g><g
   id="g40550"
   transform="translate(643.798,-36.666)">
</g><g
   id="g40552"
   transform="translate(643.798,-36.666)">
</g><g
   id="g1321"
   transform="translate(18.511871,-2.7624207)"
   style="filter:url(#filter1731)"><g
     id="g40522"
     transform="translate(631.53614,-18.097567)"
     style="fill:#666666;stroke:#ffffff;stroke-width:0;stroke-miterlimit:4;stroke-dasharray:none">
	
<g
   id="g41857"
   transform="matrix(0.55831196,0,0,0.55831196,-525.048,122.45504)"
   style="fill:#666666;stroke:#ffffff;stroke-width:0;stroke-miterlimit:4;stroke-dasharray:none"><g
     id="g41800"
     style="fill:#666666;stroke:#ffffff;stroke-width:0;stroke-miterlimit:4;stroke-dasharray:none">
	<g
   id="g41798"
   style="fill:#666666;stroke:#ffffff;stroke-width:0;stroke-miterlimit:4;stroke-dasharray:none">
		<path
   d="M 268.668,27.678 C 120.521,27.678 0,148.205 0,296.346 c 0,10.281 6.01,19.088 14.657,23.322 v 174.035 c 0,8.807 7.142,15.949 15.943,15.949 h 99.664 c 8.807,0 15.943,-7.143 15.943,-15.949 V 294.375 c 0,-8.807 -7.142,-15.949 -15.943,-15.949 H 52.907 C 62.051,167.367 155.295,79.771 268.674,79.771 c 113.378,0 206.617,87.608 215.761,198.661 h -74.438 c -8.807,0 -15.943,7.143 -15.943,15.949 v 199.328 c 0,8.807 7.143,15.949 15.943,15.949 h 99.664 c 8.807,0 15.941,-7.143 15.941,-15.949 V 318.084 c 7.062,-4.664 11.732,-12.645 11.732,-21.738 C 537.342,148.205 416.814,27.678 268.668,27.678 Z"
   id="path41796"
   style="fill:#666666;stroke:#ffffff;stroke-width:0;stroke-miterlimit:4;stroke-dasharray:none" />
	</g>
</g><g
     id="g41802"
     style="fill:#666666;stroke:#ffffff;stroke-width:0;stroke-miterlimit:4;stroke-dasharray:none">
</g><g
     id="g41804"
     style="fill:#666666;stroke:#ffffff;stroke-width:0;stroke-miterlimit:4;stroke-dasharray:none">
</g><g
     id="g41806"
     style="fill:#666666;stroke:#ffffff;stroke-width:0;stroke-miterlimit:4;stroke-dasharray:none">
</g><g
     id="g41808"
     style="fill:#666666;stroke:#ffffff;stroke-width:0;stroke-miterlimit:4;stroke-dasharray:none">
</g><g
     id="g41810"
     style="fill:#666666;stroke:#ffffff;stroke-width:0;stroke-miterlimit:4;stroke-dasharray:none">
</g><g
     id="g41812"
     style="fill:#666666;stroke:#ffffff;stroke-width:0;stroke-miterlimit:4;stroke-dasharray:none">
</g><g
     id="g41814"
     style="fill:#666666;stroke:#ffffff;stroke-width:0;stroke-miterlimit:4;stroke-dasharray:none">
</g><g
     id="g41816"
     style="fill:#666666;stroke:#ffffff;stroke-width:0;stroke-miterlimit:4;stroke-dasharray:none">
</g><g
     id="g41818"
     style="fill:#666666;stroke:#ffffff;stroke-width:0;stroke-miterlimit:4;stroke-dasharray:none">
</g><g
     id="g41820"
     style="fill:#666666;stroke:#ffffff;stroke-width:0;stroke-miterlimit:4;stroke-dasharray:none">
</g><g
     id="g41822"
     style="fill:#666666;stroke:#ffffff;stroke-width:0;stroke-miterlimit:4;stroke-dasharray:none">
</g><g
     id="g41824"
     style="fill:#666666;stroke:#ffffff;stroke-width:0;stroke-miterlimit:4;stroke-dasharray:none">
</g><g
     id="g41826"
     style="fill:#666666;stroke:#ffffff;stroke-width:0;stroke-miterlimit:4;stroke-dasharray:none">
</g><g
     id="g41828"
     style="fill:#666666;stroke:#ffffff;stroke-width:0;stroke-miterlimit:4;stroke-dasharray:none">
</g><g
     id="g41830"
     style="fill:#666666;stroke:#ffffff;stroke-width:0;stroke-miterlimit:4;stroke-dasharray:none">
</g></g></g><g
     id="g1297"><ellipse
       style="fill:none;stroke:#666666;stroke-width:47.0645;stroke-miterlimit:4;stroke-dasharray:none"
       id="ellipse45341"
       cx="256.48813"
       cy="277.76242"
       rx="226.46777"
       ry="226.46776" /></g></g></svg>
