<?xml version="1.0" encoding="UTF-8" standalone="no"?>
<!-- Generator: Adobe Illustrator 19.0.0, SVG Export Plug-In . SVG Version: 6.00 Build 0)  -->

<svg
   xmlns:dc="http://purl.org/dc/elements/1.1/"
   xmlns:cc="http://creativecommons.org/ns#"
   xmlns:rdf="http://www.w3.org/1999/02/22-rdf-syntax-ns#"
   xmlns:svg="http://www.w3.org/2000/svg"
   xmlns="http://www.w3.org/2000/svg"
   xmlns:sodipodi="http://sodipodi.sourceforge.net/DTD/sodipodi-0.dtd"
   xmlns:inkscape="http://www.inkscape.org/namespaces/inkscape"
   version="1.1"
   id="Capa_1"
   x="0px"
   y="0px"
   viewBox="0 0 426.773 426.773"
   style="enable-background:new 0 0 426.773 426.773;"
   xml:space="preserve"
   sodipodi:docname="50_battery_darkmode.svg"
   inkscape:version="0.92.4 5da689c313, 2019-01-14"><metadata
   id="metadata105"><rdf:RDF><cc:Work
       rdf:about=""><dc:format>image/svg+xml</dc:format><dc:type
         rdf:resource="http://purl.org/dc/dcmitype/StillImage" /><dc:title /></cc:Work></rdf:RDF></metadata><defs
   id="defs103" /><sodipodi:namedview
   pagecolor="#ffffff"
   bordercolor="#666666"
   borderopacity="1"
   objecttolerance="10"
   gridtolerance="10"
   guidetolerance="10"
   inkscape:pageopacity="0"
   inkscape:pageshadow="2"
   inkscape:window-width="1878"
   inkscape:window-height="1034"
   id="namedview101"
   showgrid="false"
   inkscape:zoom="1.9752889"
   inkscape:cx="416.05203"
   inkscape:cy="183.43624"
   inkscape:window-x="40"
   inkscape:window-y="20"
   inkscape:window-maximized="1"
   inkscape:current-layer="Capa_1" />
<path
   d="M291.52,42.667H256V0h-85.333v42.667h-35.52c-15.787,0-28.48,12.693-28.48,28.48v327.147c0,15.68,12.693,28.48,28.48,28.48  h156.48c15.68,0,28.48-12.693,28.48-28.48V71.147C320,55.36,307.307,42.667,291.52,42.667z"
   id="path68" />
<g
   id="g70">
</g>
<g
   id="g72">
</g>
<g
   id="g74">
</g>
<g
   id="g76">
</g>
<g
   id="g78">
</g>
<g
   id="g80">
</g>
<g
   id="g82">
</g>
<g
   id="g84">
</g>
<g
   id="g86">
</g>
<g
   id="g88">
</g>
<g
   id="g90">
</g>
<g
   id="g92">
</g>
<g
   id="g94">
</g>
<g
   id="g96">
</g>
<g
   id="g98">
</g>
<rect
   style="fill:#ffffff;fill-opacity:1"
   id="rect107"
   width="176.17676"
   height="340.70966"
   x="125.55125"
   y="63.281883" /><path
   style="fill:#ff0000;fill-opacity:1;stroke-width:0.50625503"
   d="M 125.90563,233.43421 V 63.332507 h 87.83525 87.83526 V 233.43421 403.5359 h -87.83526 -87.83525 z"
   id="path3840"
   inkscape:connector-curvature="0" /><path
   style="fill:#f9f9f9;fill-opacity:1;stroke-width:0.50625503"
   d="m 126.48856,425.06764 c -6.12215,-1.98206 -11.2939,-5.96094 -14.9966,-11.53762 -2.39092,-3.60099 -3.78133,-7.74085 -4.36388,-12.9932 -0.29773,-2.68442 -0.42547,-67.24045 -0.33465,-169.12763 0.13221,-148.329799 0.22655,-165.039071 0.94468,-167.319907 2.91387,-9.254652 9.00618,-16.025166 17.40814,-19.346034 l 3.54378,-1.400678 21.13615,-0.155819 21.13615,-0.155819 V 21.540779 0.05062551 h 42.52543 42.52542 V 21.566465 43.082305 l 19.87051,0.006 c 21.79409,0.0066 22.56495,0.08982 28.70702,3.09946 3.97903,1.949739 9.23046,7.004105 11.57878,11.144264 0.89191,1.572449 2.07394,4.62744 2.62674,6.788865 0.99262,3.881129 1.00509,5.997214 1.00509,170.635006 0,118.99358 -0.15895,167.47295 -0.55535,169.38789 -2.03145,9.81345 -10.67381,18.84545 -20.47527,21.39841 -2.61543,0.68123 -13.00959,0.77243 -85.769,0.75252 l -82.7929,-0.0226 z M 301.95657,233.56077 301.82926,63.07938 213.61432,62.951393 125.39938,62.823407 V 233.43278 404.04216 h 88.34225 88.34225 z"
   id="path3842"
   inkscape:connector-curvature="0" /><path
   style="fill:#000000;fill-opacity:1;stroke-width:0.50625503"
   d="M 125.90563,233.43421 V 63.332507 h 87.83525 87.83526 V 233.43421 403.5359 h -87.83526 -87.83525 z"
   id="path3846"
   inkscape:connector-curvature="0" /><path
   style="fill:#008000;fill-opacity:1;stroke-width:0.50625503"
   d="M 126.31064,233.4342 V 63.332501 h 87.58213 87.58212 V 233.4342 403.5359 h -87.58212 -87.58213 z"
   id="path135"
   inkscape:connector-curvature="0" /><rect
   style="fill:#ffffff;fill-opacity:1;stroke-width:0.9254567"
   id="rect181"
   width="174.40486"
   height="30.830935"
   x="126.31064"
   y="63.3325" /><path
   style="fill:#000000;fill-opacity:1;stroke-width:0.50625503"
   d="M 126.47414,78.601374 V 63.413722 h 87.07587 87.07587 v 15.187652 15.187652 h -87.07587 -87.07587 z"
   id="path183"
   inkscape:connector-curvature="0" /><path
   style="fill:#000000;fill-opacity:1;stroke-width:0.50625503"
   d="M 126.47414,108.97668 V 93.789026 h 87.07587 87.07587 v 15.187654 15.18765 h -87.07587 -87.07587 z"
   id="path183-3"
   inkscape:connector-curvature="0" /><path
   style="fill:#000000;fill-opacity:1;stroke-width:0.50625503"
   d="m 126.47414,139.35198 v -15.18765 h 87.07587 87.07587 v 15.18765 15.18765 h -87.07587 -87.07587 z"
   id="path183-3-6"
   inkscape:connector-curvature="0" /><path
   style="fill:#88aa00;fill-opacity:1;stroke-width:0.50625503"
   d="M 126.47414,278.97713 V 154.43838 h 87.07188 87.07189 l 0.13461,-30.24874 c 0.074,-16.6368 0.18973,39.40563 0.25711,124.53875 l 0.1225,154.78748 h -87.32899 -87.329 z"
   id="path272"
   inkscape:connector-curvature="0" /><path
   style="fill:#000000;fill-opacity:1;stroke-width:0.50625503"
   d="m 126.47414,169.72728 v -15.18765 h 87.07587 87.07587 v 15.18765 15.18765 h -87.07587 -87.07587 z"
   id="path183-3-6-7"
   inkscape:connector-curvature="0" /><path
   style="fill:#000000;fill-opacity:1;stroke-width:0.50625503"
   d="m 126.47414,200.10258 v -15.18765 h 87.07587 87.07587 v 15.18765 15.18765 h -87.07587 -87.07587 z"
   id="path183-3-6-7-5"
   inkscape:connector-curvature="0" /><rect
   style="fill:#000000;fill-opacity:1"
   id="rect159"
   width="174.31525"
   height="151.95773"
   x="126.31064"
   y="63.3325" /><path
   style="fill:#ffffff;fill-opacity:1;stroke-width:0.50625503"
   d="m 126.01465,424.63517 c -6.7856,-2.51942 -12.60087,-7.67499 -15.71299,-13.93048 -3.02176,-6.07385 -2.81209,7.11834 -2.81209,-176.93614 V 64.67936 l 1.2236,-2.784403 c 3.30293,-7.516126 8.11955,-12.777931 14.70927,-16.068817 l 3.81108,-1.903238 13.41576,-0.320675 c 7.37867,-0.176371 17.23165,-0.347232 21.89553,-0.379691 l 8.47977,-0.05902 V 21.64768 0.13183957 h 42.2723 42.2723 V 21.586012 43.040185 l 20.37676,0.255945 c 22.11906,0.277828 23.61731,0.448708 28.94521,3.301272 1.41304,0.756547 4.23892,3.034262 6.27971,5.061589 4.67965,4.648748 6.96775,9.226903 7.71369,15.433985 0.32357,2.692417 0.45109,63.215534 0.36025,170.978744 l -0.14061,166.81104 -1.12126,2.73896 c -3.70464,9.0495 -12.25339,16.4073 -20.64771,17.77122 -1.88834,0.30682 -34.25729,0.48467 -85.55711,0.47009 l -82.51957,-0.0234 -3.24389,-1.20441 z M 302.14464,233.59552 V 63.067666 l -88.20141,-0.293248 c -48.51077,-0.161288 -88.37836,-0.183887 -88.59463,-0.05022 -0.21628,0.133661 -0.39323,77.003162 -0.39323,170.821102 v 170.57808 h 88.59464 88.59463 z"
   id="path161"
   inkscape:connector-curvature="0" /></svg>