<?xml version="1.0" encoding="UTF-8" standalone="no"?>
<svg
   xmlns:dc="http://purl.org/dc/elements/1.1/"
   xmlns:cc="http://creativecommons.org/ns#"
   xmlns:rdf="http://www.w3.org/1999/02/22-rdf-syntax-ns#"
   xmlns:svg="http://www.w3.org/2000/svg"
   xmlns="http://www.w3.org/2000/svg"
   xmlns:sodipodi="http://sodipodi.sourceforge.net/DTD/sodipodi-0.dtd"
   xmlns:inkscape="http://www.inkscape.org/namespaces/inkscape"
   enable-background="new 0 0 515.91 728.5"
   height="512"
   id="Layer_1"
   version="1.1"
   viewBox="0 0 512.00003 512"
   width="512"
   xml:space="preserve"
   sodipodi:docname="alt_arch_logo.svg"
   inkscape:version="0.92.4 5da689c313, 2019-01-14"><metadata
     id="metadata293"><rdf:RDF><cc:Work
         rdf:about=""><dc:format>image/svg+xml</dc:format><dc:type
           rdf:resource="http://purl.org/dc/dcmitype/StillImage" /><dc:title></dc:title></cc:Work></rdf:RDF></metadata><sodipodi:namedview
     pagecolor="#ffffff"
     bordercolor="#666666"
     borderopacity="1"
     objecttolerance="10"
     gridtolerance="10"
     guidetolerance="10"
     inkscape:pageopacity="0"
     inkscape:pageshadow="2"
     inkscape:window-width="1874"
     inkscape:window-height="1034"
     id="namedview291"
     showgrid="false"
     inkscape:zoom="1.6464844"
     inkscape:cx="256"
     inkscape:cy="256"
     inkscape:window-x="44"
     inkscape:window-y="24"
     inkscape:window-maximized="1"
     inkscape:current-layer="Layer_1" /><defs
     id="defs7" /><g
     id="g3824"
     transform="translate(148.11806,138.35224)"><path
       d="m -733.62329,72.267944 c 0,203.804876 -165.21649,369.021366 -369.02141,369.021366 -203.8048,0 -369.0213,-165.21649 -369.0213,-369.021366 0,-203.804874 165.2165,-369.021364 369.0213,-369.021364 203.80492,0 369.02141,165.21649 369.02141,369.021364 z"
       id="path4878"
       style="fill:#1793d1;fill-opacity:1;fill-rule:nonzero;stroke:none"
       transform="matrix(0.69372682,0,0,0.69372682,872.81612,67.513546)" /><path
       d="M 107.84949,-98.602257 C 92.493787,-60.954304 83.231987,-36.328024 66.135387,0.20085614 76.617787,11.312106 89.484387,24.251686 110.3795,38.865776 87.915087,29.621786 72.591587,20.341076 61.140187,10.710446 39.259887,56.367046 4.9797874,121.40283 -64.585822,246.39777 c 54.6762094,-31.56545 97.060109,-51.0259 136.559909,-58.45149 -1.696,-7.29506 -2.6605,-15.1861 -2.595,-23.41953 l 0.065,-1.7516 c 0.8677,-35.02952 19.09,-61.96722 40.676113,-60.13821 21.5861,1.82902 38.3647,31.72582 37.4971,66.75537 -0.1631,6.59145 -0.9065,12.93234 -2.2057,18.81346 39.0709,7.64297 81.0017,27.0536 134.93811,58.192 C 269.7144,226.81765 260.2216,209.1676 251.1563,192.3577 236.8771,181.29028 221.983,166.88599 191.602,151.29245 c 20.8822,5.42606 35.8334,11.68629 47.4876,18.68371 C 146.9204,-1.6272139 139.4566,-24.429744 107.84949,-98.602257 z"
       id="path2518"
       style="fill:#ffffff;fill-opacity:1;fill-rule:evenodd;stroke:none" /></g><path
     style="fill:#550000;stroke-width:0.6073547"
     d="M 236.38244,511.0747 C 202.38407,507.61704 179.15372,501.65984 151.04911,489.1918 98.430773,465.84873 53.162945,422.3468 27.251652,370.22365 16.276592,348.14623 8.7064009,325.49764 4.4201222,301.91601 1.3946988,285.27118 0.75890577,277.44681 0.74336326,256.66809 0.72764559,235.65517 1.2060512,229.32169 4.0985451,212.24972 20.841143,113.43219 95.973774,32.409002 193.47586,8.0248268 c 21.4241,-5.3579244 39.64753,-7.55171967 62.64561,-7.54147706 17.30276,0.007706 27.71722,0.85392546 43.57894,3.54097746 74.61899,12.6408088 141.17804,59.5351708 178.85151,126.0103128 29.7347,52.46712 39.93104,114.24563 28.66917,173.70344 -10.55807,55.74206 -39.65654,106.72561 -82.25502,144.11934 -38.61901,33.90048 -84.66216,54.82086 -136.04745,61.81513 -7.66191,1.0429 -13.20075,1.31561 -29.76038,1.4653 -11.19051,0.10116 -21.43962,0.0727 -22.7758,-0.0632 z m 177.85288,-153.2956 -14.47447,-26.84 -9.11032,-7.41222 c -16.30884,-13.26897 -27.66087,-21.28421 -39.71342,-28.04014 -3.4699,-1.94502 -5.99509,-3.641 -5.61154,-3.76885 0.87222,-0.29074 13.90126,3.9622 22.13053,7.22384 3.40368,1.34903 9.26324,4.06146 13.02124,6.0276 3.75801,1.96614 6.83274,3.44001 6.83274,3.27527 0,-0.16474 -5.29612,-10.19699 -11.76916,-22.29389 -58.20759,-108.7791 -79.54364,-152.27559 -109.74668,-223.733685 -5.06016,-11.971961 -9.38232,-21.965911 -9.60479,-22.208777 -0.22248,-0.242866 -4.74682,10.279554 -10.0541,23.383152 -11.48423,28.354445 -20.17527,48.93411 -27.05815,64.07143 l -5.04425,11.09367 4.19017,4.34606 c 10.1593,10.53727 21.5892,20.77257 31.38505,28.10485 2.59753,1.94427 4.58267,3.67514 4.41143,3.84638 -0.17123,0.17124 -5.5762,-2.30929 -12.01102,-5.51229 -11.78522,-5.8662 -21.82794,-11.98156 -28.8847,-17.58888 -2.10277,-1.67087 -3.90191,-2.93632 -3.99809,-2.81212 -0.0962,0.12419 -4.98822,9.9283 -10.87119,21.7869 -20.85244,42.03331 -51.86734,100.04358 -98.03008,183.35541 -9.14207,16.4991 -16.490431,30.12989 -16.329682,30.29064 0.160755,0.16075 5.155445,-2.44297 11.09931,-5.78606 38.897252,-21.87742 67.880662,-35.3751 94.661752,-44.08431 8.57513,-2.78863 23.2289,-6.67178 28.05039,-7.43316 1.41969,-0.22419 2.58093,-0.57766 2.58054,-0.78551 -4e-4,-0.20783 -0.41661,-2.42771 -0.92492,-4.93305 -1.50445,-7.41493 -1.81963,-22.7377 -0.64047,-31.13579 2.42104,-17.24273 8.23593,-30.33214 17.60891,-39.63791 5.05714,-5.02087 9.24148,-7.56539 14.39457,-8.75339 21.19472,-4.88624 40.92268,19.18403 44.29742,54.04773 0.90371,9.3361 0.11837,24.13749 -1.58012,29.78064 -0.23666,0.78627 1.45024,1.37895 9.28518,3.26229 24.35164,5.85357 48.36656,15.27166 80.63488,31.62312 13.78145,6.98354 40.29269,21.38956 43.69289,23.74242 0.64794,0.44836 1.28529,0.70797 1.41634,0.57692 0.13106,-0.13105 -6.27523,-12.31628 -14.23619,-27.07829 z"
     id="path295"
     inkscape:connector-curvature="0" /></svg>