<?xml version="1.0" encoding="UTF-8" standalone="no"?>
<svg
   xmlns:dc="http://purl.org/dc/elements/1.1/"
   xmlns:cc="http://creativecommons.org/ns#"
   xmlns:rdf="http://www.w3.org/1999/02/22-rdf-syntax-ns#"
   xmlns:svg="http://www.w3.org/2000/svg"
   xmlns="http://www.w3.org/2000/svg"
   xmlns:sodipodi="http://sodipodi.sourceforge.net/DTD/sodipodi-0.dtd"
   xmlns:inkscape="http://www.inkscape.org/namespaces/inkscape"
   enable-background="new 0 0 515.91 728.5"
   height="512"
   id="Layer_1"
   version="1.1"
   viewBox="0 0 512.00003 512"
   width="512"
   xml:space="preserve"
   sodipodi:docname="arch_logo_darkmode.svg"
   inkscape:version="0.92.4 5da689c313, 2019-01-14"><metadata
     id="metadata293"><rdf:RDF><cc:Work
         rdf:about=""><dc:format>image/svg+xml</dc:format><dc:type
           rdf:resource="http://purl.org/dc/dcmitype/StillImage" /><dc:title></dc:title></cc:Work></rdf:RDF></metadata><sodipodi:namedview
     pagecolor="#ffffff"
     bordercolor="#666666"
     borderopacity="1"
     objecttolerance="10"
     gridtolerance="10"
     guidetolerance="10"
     inkscape:pageopacity="0"
     inkscape:pageshadow="2"
     inkscape:window-width="1874"
     inkscape:window-height="1034"
     id="namedview291"
     showgrid="false"
     inkscape:zoom="1.6464844"
     inkscape:cx="256"
     inkscape:cy="256"
     inkscape:window-x="44"
     inkscape:window-y="24"
     inkscape:window-maximized="1"
     inkscape:current-layer="Layer_1" /><defs
     id="defs7" /><g
     id="g3824"
     transform="translate(148.11806,138.35224)"><path
       d="m -733.62329,72.267944 c 0,203.804876 -165.21649,369.021366 -369.02141,369.021366 -203.8048,0 -369.0213,-165.21649 -369.0213,-369.021366 0,-203.804874 165.2165,-369.021364 369.0213,-369.021364 203.80492,0 369.02141,165.21649 369.02141,369.021364 z"
       id="path4878"
       style="fill:#1793d1;fill-opacity:1;fill-rule:nonzero;stroke:none"
       transform="matrix(0.69372682,0,0,0.69372682,872.81612,67.513546)" /><path
       d="M 107.84949,-98.602257 C 92.493787,-60.954304 83.231987,-36.328024 66.135387,0.20085614 76.617787,11.312106 89.484387,24.251686 110.3795,38.865776 87.915087,29.621786 72.591587,20.341076 61.140187,10.710446 39.259887,56.367046 4.9797874,121.40283 -64.585822,246.39777 c 54.6762094,-31.56545 97.060109,-51.0259 136.559909,-58.45149 -1.696,-7.29506 -2.6605,-15.1861 -2.595,-23.41953 l 0.065,-1.7516 c 0.8677,-35.02952 19.09,-61.96722 40.676113,-60.13821 21.5861,1.82902 38.3647,31.72582 37.4971,66.75537 -0.1631,6.59145 -0.9065,12.93234 -2.2057,18.81346 39.0709,7.64297 81.0017,27.0536 134.93811,58.192 C 269.7144,226.81765 260.2216,209.1676 251.1563,192.3577 236.8771,181.29028 221.983,166.88599 191.602,151.29245 c 20.8822,5.42606 35.8334,11.68629 47.4876,18.68371 C 146.9204,-1.6272139 139.4566,-24.429744 107.84949,-98.602257 z"
       id="path2518"
       style="fill:#ffffff;fill-opacity:1;fill-rule:evenodd;stroke:none" /></g><path
     style="fill:#000000;stroke-width:0.6073547"
     d="M 236.38244,511.0747 C 202.38407,507.61704 179.15372,501.65984 151.04911,489.1918 98.430773,465.84873 53.162945,422.3468 27.251652,370.22365 16.276592,348.14623 8.7064009,325.49764 4.4201222,301.91601 1.3946988,285.27118 0.75890577,277.44681 0.74336326,256.66809 0.72764559,235.65517 1.2060512,229.32169 4.0985451,212.24972 20.841143,113.43219 95.973774,32.409002 193.47586,8.0248268 c 21.4241,-5.3579244 39.64753,-7.55171967 62.64561,-7.54147706 17.30276,0.007706 27.71722,0.85392546 43.57894,3.54097746 74.61899,12.6408088 141.17804,59.5351708 178.85151,126.0103128 29.7347,52.46712 39.93104,114.24563 28.66917,173.70344 -10.55807,55.74206 -39.65654,106.72561 -82.25502,144.11934 -38.61901,33.90048 -84.66216,54.82086 -136.04745,61.81513 -7.66191,1.0429 -13.20075,1.31561 -29.76038,1.4653 -11.19051,0.10116 -21.43962,0.0727 -22.7758,-0.0632 z m 177.85288,-153.2956 -14.47447,-26.84 -9.11032,-7.41222 c -16.30884,-13.26897 -27.66087,-21.28421 -39.71342,-28.04014 -3.4699,-1.94502 -5.99509,-3.641 -5.61154,-3.76885 0.87222,-0.29074 13.90126,3.9622 22.13053,7.22384 3.40368,1.34903 9.26324,4.06146 13.02124,6.0276 3.75801,1.96614 6.83274,3.44001 6.83274,3.27527 0,-0.16474 -5.29612,-10.19699 -11.76916,-22.29389 -58.20759,-108.7791 -79.54364,-152.27559 -109.74668,-223.733685 -5.06016,-11.971961 -9.38232,-21.965911 -9.60479,-22.208777 -0.22248,-0.242866 -4.74682,10.279554 -10.0541,23.383152 -11.48423,28.354445 -20.17527,48.93411 -27.05815,64.07143 l -5.04425,11.09367 4.19017,4.34606 c 10.1593,10.53727 21.5892,20.77257 31.38505,28.10485 2.59753,1.94427 4.58267,3.67514 4.41143,3.84638 -0.17123,0.17124 -5.5762,-2.30929 -12.01102,-5.51229 -11.78522,-5.8662 -21.82794,-11.98156 -28.8847,-17.58888 -2.10277,-1.67087 -3.90191,-2.93632 -3.99809,-2.81212 -0.0962,0.12419 -4.98822,9.9283 -10.87119,21.7869 -20.85244,42.03331 -51.86734,100.04358 -98.03008,183.35541 -9.14207,16.4991 -16.490431,30.12989 -16.329682,30.29064 0.160755,0.16075 5.155445,-2.44297 11.09931,-5.78606 38.897252,-21.87742 67.880662,-35.3751 94.661752,-44.08431 8.57513,-2.78863 23.2289,-6.67178 28.05039,-7.43316 1.41969,-0.22419 2.58093,-0.57766 2.58054,-0.78551 -4e-4,-0.20783 -0.41661,-2.42771 -0.92492,-4.93305 -1.50445,-7.41493 -1.81963,-22.7377 -0.64047,-31.13579 2.42104,-17.24273 8.23593,-30.33214 17.60891,-39.63791 5.05714,-5.02087 9.24148,-7.56539 14.39457,-8.75339 21.19472,-4.88624 40.92268,19.18403 44.29742,54.04773 0.90371,9.3361 0.11837,24.13749 -1.58012,29.78064 -0.23666,0.78627 1.45024,1.37895 9.28518,3.26229 24.35164,5.85357 48.36656,15.27166 80.63488,31.62312 13.78145,6.98354 40.29269,21.38956 43.69289,23.74242 0.64794,0.44836 1.28529,0.70797 1.41634,0.57692 0.13106,-0.13105 -6.27523,-12.31628 -14.23619,-27.07829 z"
     id="path295"
     inkscape:connector-curvature="0" /><path
     style="fill:#ffffff;stroke-width:0.6073547"
     d="m 426.44397,383.35819 c -1.30273,-1.21908 -29.58543,-16.60737 -43.08169,-23.44026 -30.86351,-15.62558 -54.61487,-25.00556 -78.59867,-31.04051 -5.81622,-1.4635 -10.63411,-2.73067 -10.70643,-2.81591 -0.0723,-0.0852 0.27308,-2.34146 0.76752,-5.01382 1.31546,-7.10972 1.25708,-24.45576 -0.10833,-32.1898 -3.1857,-18.04459 -11.11634,-33.74851 -20.98135,-41.54635 -23.73943,-18.76495 -51.578,4.34291 -55.90539,46.40519 -0.86424,8.40049 -0.47276,19.42008 0.9571,26.94086 0.5308,2.79184 0.88064,5.16021 0.77743,5.26302 -0.10321,0.10281 -3.46736,0.91981 -7.4759,1.81555 -31.51049,7.04125 -69.76656,23.45514 -117.109818,50.24633 -5.284419,2.99041 -9.721121,5.32402 -9.859338,5.1858 -0.138216,-0.13821 2.919756,-5.97261 6.795496,-12.96531 53.07677,-95.76245 85.0507,-155.38754 106.87815,-199.30673 l 10.63176,-21.39226 3.76129,2.94429 c 5.88401,4.60592 15.20928,10.49538 23.50032,14.84187 8.02678,4.20794 21.29123,10.28679 21.65427,9.92375 0.11843,-0.11843 -2.72384,-2.39351 -6.31615,-5.05573 -3.59231,-2.66223 -9.12792,-7.00798 -12.30135,-9.65723 -6.03959,-5.04199 -24.90154,-23.22251 -24.90154,-24.00192 0,-0.24803 2.15071,-5.19205 4.77934,-10.98673 7.28095,-16.05041 14.1712,-32.327116 25.49995,-60.237945 5.67208,-13.974388 10.47216,-25.567271 10.66685,-25.761961 0.19469,-0.19469 0.44604,-0.240102 0.55856,-0.100917 0.11251,0.139185 4.66652,10.775484 10.12001,23.63622 19.88445,46.892593 28.3882,65.387613 49.14861,106.894423 17.2616,34.51156 36.22497,70.89744 61.47249,117.95001 4.96551,9.254 9.02821,16.92348 9.02821,17.04329 0,0.1198 -3.62936,-1.57549 -8.06525,-3.76733 -4.43589,-2.19184 -10.85915,-5.01058 -14.2739,-6.26387 -7.02433,-2.57809 -21.84019,-7.13508 -23.19824,-7.13521 -0.49325,-4e-5 2.3765,1.81707 6.37722,4.03802 14.50583,8.05271 25.10853,15.36659 42.19695,29.10796 l 10.02135,8.05852 14.15441,26.23183 c 7.78492,14.42751 14.05282,26.33343 13.92866,26.45758 -0.12415,0.12416 -0.48082,-0.013 -0.7926,-0.30472 z"
     id="path371"
     inkscape:connector-curvature="0" /><path
     style="fill:#000000;stroke-width:0.6073547"
     d="M 225.45006,509.61163 C 194.51959,505.36873 170.05745,498.16994 144.36821,485.75062 94.779156,461.77708 52.465429,419.9118 27.574454,370.19468 13.347176,341.77718 3.8964181,308.32047 1.5998973,278.24193 0.51774053,264.06845 1.1791924,232.94748 2.7922302,222.14329 6.2584013,198.92672 10.77751,181.63718 18.45371,162.22444 46.24364,91.945027 104.20921,37.174309 175.88735,13.467966 204.29088,4.0739728 232.52797,0.0254825 263.7134,0.87590998 301.75547,1.9133181 336.06122,10.545332 370.30781,27.697204 c 39.33515,19.7004 73.67543,50.007323 98.0641,86.546216 22.35264,33.48852 35.45809,68.64126 41.10606,110.25873 1.23623,9.10931 1.39798,12.76068 1.39798,31.55859 0,18.81037 -0.16126,22.44588 -1.40092,31.5816 -5.66225,41.72851 -19.17678,77.56515 -42.02961,111.45042 -9.18981,13.6263 -17.94555,24.13475 -30.89967,37.08518 -21.30349,21.29742 -42.08963,36.28533 -67.75998,48.85855 -25.16364,12.32504 -48.21645,19.48389 -77.43773,24.04765 -7.11345,1.11098 -11.45678,1.30793 -32.79715,1.48723 -21.65577,0.18194 -25.61489,0.0672 -33.10083,-0.95974 z M 428.6102,384.66561 c 0,-0.44801 -8.97427,-17.40732 -22.13327,-41.82681 l -6.58543,-12.22076 -10.91047,-8.73298 c -14.31324,-11.45664 -23.79433,-18.22983 -34.01965,-24.30326 -4.59701,-2.73043 -8.24821,-5.07441 -8.11379,-5.20883 0.41402,-0.41403 17.9722,5.64453 23.81729,8.2183 3.03777,1.33763 8.02567,3.68885 11.08422,5.22494 3.05854,1.5361 5.56098,2.64667 5.56098,2.46796 0,-0.61168 -4.41446,-9.11405 -16.39301,-31.57338 C 316.33856,174.37821 298.1201,137.12136 266.15238,62.466429 260.89565,50.190273 256.37601,40.146145 256.10872,40.146145 c -0.52157,0 -5.846,12.398628 -15.77964,36.744958 -7.5152,18.418966 -17.28773,41.277267 -22.65724,52.996137 l -3.96761,8.65924 3.13981,3.44366 c 4.79033,5.25386 19.93363,19.11424 27.59512,25.25728 3.7631,3.01728 6.71957,5.60841 6.56992,5.75805 -0.44027,0.44027 -15.88087,-7.35824 -23.1296,-11.68197 -3.6745,-2.19176 -9.26962,-5.89208 -12.43361,-8.22294 -3.16399,-2.33086 -5.95717,-4.23793 -6.20707,-4.23793 -0.24991,0 -6.34085,11.75893 -13.53545,26.13095 -21.26964,42.48857 -46.22023,89.30491 -86.25482,161.84533 -22.826153,41.3597 -26.185213,47.67734 -25.349839,47.67734 0.265893,0 5.531033,-2.76268 11.700323,-6.1393 54.736276,-29.95862 83.262756,-42.11498 117.424226,-50.03951 l 7.20854,-1.67218 -0.3719,-2.50511 c -0.20454,-1.37781 -0.64146,-4.28162 -0.97094,-6.45291 -0.80335,-5.29431 -0.78303,-22.45166 0.0335,-28.32267 2.28923,-16.45896 9.11897,-30.99397 18.68019,-39.7551 21.13162,-19.36329 47.07978,-2.49443 55.495,36.07721 1.16697,5.34888 1.35274,8.04105 1.37,19.85346 0.0133,9.09228 -0.24205,14.7802 -0.76293,16.99645 -0.68006,2.8935 -0.66112,3.42 0.14425,4.0089 0.50992,0.37286 5.50868,1.84285 11.10834,3.26664 23.32642,5.93105 44.30205,14.18153 74.77735,29.41265 14.73355,7.36362 34.9849,18.18144 42.90564,22.91922 4.94388,2.95718 5.76987,3.3153 5.76987,2.50161 z"
     id="path373"
     inkscape:connector-curvature="0" /><path
     style="fill:#ffffff;fill-opacity:1;stroke-width:0.6073547"
     d="m 421.62562,380.6042 c -17.30344,-10.0131 -47.78594,-25.78772 -62.25385,-32.21621 -20.92018,-9.2954 -37.58513,-15.20016 -55.79155,-19.76819 -5.1309,-1.28736 -9.40364,-2.42449 -9.49497,-2.52696 -0.0913,-0.10248 0.23507,-2.6461 0.72535,-5.65251 1.18857,-7.28842 0.76137,-28.31819 -0.70944,-34.92289 -5.54082,-24.88126 -18.24077,-41.51718 -33.89664,-44.40188 -10.80424,-1.99076 -22.19986,4.26221 -30.49927,16.73546 -5.1843,7.79151 -8.44265,16.25291 -10.75342,27.92476 -1.74432,8.81074 -1.88724,25.62312 -0.29153,34.2954 0.57728,3.13742 0.97459,5.77871 0.88291,5.86953 -0.0917,0.0908 -3.78722,1.01612 -8.21229,2.05624 -31.46159,7.39506 -67.4117,22.66865 -112.119926,47.63474 -7.633147,4.26253 -13.982431,7.64606 -14.109521,7.51897 -0.12709,-0.12709 2.99824,-6.08961 6.945178,-13.25006 3.946938,-7.16044 13.881519,-25.18126 22.076839,-40.04627 38.56519,-69.95107 62.38884,-114.70879 83.0978,-156.11661 l 12.13512,-24.26431 5.27988,3.98229 c 6.09607,4.59791 13.23311,9.08877 21.44248,13.49231 6.25477,3.35509 20.35373,9.85294 21.3788,9.85294 0.3481,0 -2.47489,-2.35682 -6.2733,-5.23737 -3.79842,-2.88055 -9.22935,-7.17097 -12.06873,-9.53427 -5.64995,-4.70261 -24.29419,-22.81101 -24.29419,-23.59597 0,-0.26886 2.07881,-5.06998 4.61957,-10.66916 7.0201,-15.47046 12.68086,-28.826083 24.87094,-58.678765 6.118,-14.982572 11.27798,-27.395383 11.46663,-27.584026 0.18863,-0.188642 0.4459,-0.229107 0.5717,-0.08992 0.12579,0.139185 4.74979,10.912139 10.27555,23.939897 20.0135,47.184694 27.25426,62.894304 49.40893,107.198104 17.26261,34.52088 29.52251,58.1342 54.93644,105.81102 8.31834,15.60531 15.12426,28.48667 15.12426,28.62524 0,0.13858 -3.10025,-1.30142 -6.88945,-3.19999 -3.7892,-1.89857 -9.79329,-4.59474 -13.34241,-5.9915 -6.95745,-2.73811 -24.63816,-8.30199 -25.05552,-7.88463 -0.14007,0.14007 2.13463,1.58299 5.0549,3.20648 15.1456,8.42004 27.60194,17.02065 44.52866,30.74526 l 8.85134,7.1769 14.12575,26.18343 c 7.76915,14.40089 14.03516,26.26494 13.92445,26.36456 -0.1107,0.0996 -2.66106,-1.2423 -5.66747,-2.98204 z"
     id="path375"
     inkscape:connector-curvature="0" /><path
     style="fill:#000000;fill-opacity:1;stroke-width:0.6073547"
     d="m 413.12266,375.91928 c -43.93707,-24.54205 -76.77183,-38.75163 -108.55343,-46.97762 -5.68084,-1.47037 -10.41041,-2.75501 -10.51015,-2.85475 -0.0997,-0.0997 0.11931,-1.54767 0.48679,-3.21764 0.37363,-1.69794 0.68462,-9.32753 0.70554,-17.30913 0.0402,-15.33738 -0.40534,-18.88002 -3.69501,-29.38063 -3.52854,-11.26306 -10.72767,-23.01007 -17.382,-28.36267 -6.81081,-5.47846 -15.04737,-7.98413 -21.88678,-6.65824 -16.2912,3.15823 -29.02334,20.75264 -33.63841,46.48458 -1.36763,7.62534 -1.33993,24.80095 0.0523,32.41197 0.57227,3.12861 0.95827,5.769 0.85777,5.86756 -0.10053,0.0986 -4.69237,1.27662 -10.20411,2.61792 -30.82485,7.50136 -65.0695,22.13511 -109.446429,46.7697 -7.917481,4.39517 -14.550794,7.99121 -14.740695,7.99121 -0.52602,0 1.015574,-2.87963 18.339304,-34.25701 46.20138,-83.68164 69.95861,-128.12468 93.13821,-174.23521 l 12.75582,-25.37478 3.46918,2.64878 c 9.48914,7.24509 21.81205,14.52857 34.00527,20.09887 4.58404,2.09416 8.88124,4.00484 9.54933,4.24598 1.06115,0.38299 1.09954,0.33217 0.30368,-0.40214 -0.50107,-0.46231 -3.37082,-2.7197 -6.37723,-5.01644 -3.0064,-2.29675 -7.78932,-6.0928 -10.62871,-8.43569 -5.53879,-4.57027 -24.90154,-23.31258 -24.90154,-24.10362 0,-0.26234 2.86712,-6.90298 6.37138,-14.75698 7.34508,-16.4623 11.82595,-27.089493 24.84539,-58.925246 5.15515,-12.605612 9.53283,-23.079126 9.72818,-23.274473 0.19534,-0.195348 0.4563,-0.241299 0.57989,-0.102114 0.12359,0.139185 6.17693,14.191854 13.45186,31.228153 15.86009,37.1409 23.94739,54.83874 39.41064,86.24437 16.51578,33.54328 34.74139,68.73507 63.91501,123.41336 6.80806,12.75992 12.54909,23.64496 12.75785,24.18899 0.25628,0.66783 -1.80968,-0.10881 -6.35988,-2.39082 -8.62192,-4.32406 -14.9245,-6.90104 -24.40139,-9.97717 -10.24309,-3.32485 -14.33672,-4.46786 -13.63985,-3.8085 0.31995,0.30274 4.68137,2.94046 9.69205,5.8616 13.72312,8.00035 22.31326,14.05638 39.22138,27.651 l 8.85365,7.1186 14.12776,26.2277 c 7.77026,14.42524 14.03524,26.30097 13.92215,26.39052 -0.11308,0.0895 -6.49173,-3.34845 -14.17476,-7.63999 z"
     id="path377"
     inkscape:connector-curvature="0" /><path
     style="fill:#ffffff;fill-opacity:1;stroke-width:0.6073547"
     d="m 225.72466,509.67533 c -4.52561,-0.62011 -12.17828,-1.8506 -17.00593,-2.73444 C 130.77707,492.67159 62.665642,441.03472 27.206699,369.33238 14.670991,343.98364 7.1173211,319.59608 2.7800151,290.46912 1.1841671,279.75227 0.50740032,247.1591 1.5974376,233.51603 4.7099428,194.55945 18.411949,153.8406 39.757625,120.11372 81.586647,54.022466 149.46578,11.311408 227.27212,2.1254247 c 11.31563,-1.33594755 44.29915,-1.5597245 54.66193,-0.3708542 24.49094,2.8097271 46.29623,8.1152675 67.11269,16.3294865 83.69619,33.026695 144.25278,107.574083 158.77825,195.461853 2.78093,16.82628 3.08177,20.97659 3.08177,42.51483 0,21.54421 -0.30179,25.70488 -3.08384,42.51482 -7.32411,44.25451 -26.85223,86.43437 -56.3783,121.77462 -7.01547,8.39693 -22.57034,23.95993 -31.03371,31.04992 -37.90025,31.75009 -81.78519,51.05448 -132.40332,58.24245 -2.70245,0.38376 -15.77554,0.79433 -29.4567,0.92511 -21.47755,0.2053 -25.64166,0.0921 -32.82623,-0.89233 z M 428.33824,384.06074 c -0.38859,-1.02761 -24.73255,-46.65897 -27.35934,-51.28352 -0.84286,-1.48388 -5.27941,-5.4547 -12.66986,-11.33979 -14.14511,-11.26392 -22.6223,-17.31077 -33.34352,-23.78419 -4.59474,-2.77427 -8.25138,-5.14682 -8.12588,-5.27232 0.3628,-0.3628 11.58063,3.33651 19.21303,6.33591 3.84152,1.50964 10.23317,4.371 14.20367,6.35858 5.44249,2.72441 7.11687,3.34084 6.80366,2.50476 -0.2285,-0.60994 -9.25412,-17.78088 -20.05695,-38.15763 C 313.94616,169.34433 299.90641,140.7051 270.05866,71.668849 263.646,56.8367 257.98197,43.676394 257.47192,42.423725 c -0.51005,-1.252669 -1.12019,-2.27758 -1.35587,-2.27758 -0.47067,0 -5.31512,11.315593 -15.99132,37.352313 -7.72984,18.851214 -18.81985,44.744832 -23.11859,53.978622 -1.53568,3.29868 -2.79214,6.26576 -2.79214,6.5935 0,2.0083 16.37395,17.82009 29.61725,28.60042 4.09684,3.33493 7.305,6.20731 7.12922,6.38307 -0.51074,0.51075 -18.22378,-8.62269 -25.20673,-12.99743 -3.50748,-2.1974 -8.64907,-5.6435 -11.42576,-7.65801 -2.77669,-2.0145 -5.12434,-3.56589 -5.21698,-3.44753 -0.0926,0.11837 -6.26471,12.24083 -13.7157,26.93882 -25.08542,49.48409 -43.61122,84.15413 -89.89687,168.23724 -19.459156,35.34975 -22.133454,40.39195 -21.41892,40.3838 0.255344,-0.003 7.980276,-4.11526 17.16652,-9.13855 47.23915,-25.83169 75.78978,-38.03352 107.37989,-45.8915 6.24687,-1.5539 11.44193,-2.89559 11.54458,-2.98155 0.10264,-0.086 -0.239,-3.02268 -0.7592,-6.52605 -1.10139,-7.41752 -1.25571,-23.63697 -0.29089,-30.57379 2.29257,-16.48295 8.92542,-30.69078 18.51622,-39.66251 19.48017,-18.22275 44.06132,-4.88643 53.9613,29.27633 2.7179,9.37892 3.58775,17.5919 3.19758,30.19093 -0.19138,6.17983 -0.64655,12.44114 -1.01147,13.914 -0.3728,1.50463 -0.43354,2.90791 -0.13866,3.20279 0.28866,0.28867 5.12467,1.75237 10.74669,3.25267 26.3589,7.0342 44.44675,14.09811 74.41505,29.06158 15.1712,7.57513 42.09233,21.98437 46.76631,25.03114 2.59082,1.68886 3.29217,1.78888 2.76481,0.39429 z"
     id="path379"
     inkscape:connector-curvature="0" /></svg>